<?xml version="1.0" encoding="iso-8859-1"?>
<!-- Generator: Adobe Illustrator 17.0.2, SVG Export Plug-In . SVG Version: 6.00 Build 0)  -->
<!DOCTYPE svg PUBLIC "-//W3C//DTD SVG 1.1//EN" "http://www.w3.org/Graphics/SVG/1.1/DTD/svg11.dtd">
<svg version="1.1" id="Layer_1" xmlns="http://www.w3.org/2000/svg" xmlns:xlink="http://www.w3.org/1999/xlink" x="0px" y="0px"
	 width="29.015px" height="27.987px" viewBox="0 0 29.015 27.987" style="enable-background:new 0 0 29.015 27.987;"
	 xml:space="preserve">
<g id="Star_-_Filled.svg">
	<g>
		<polygon style="fill-rule:evenodd;clip-rule:evenodd;fill:#B40000;" points="29.015,10.69 17.933,10.689 14.508,0 11.083,10.689
			0,10.69 8.966,17.297 5.542,27.986 14.508,21.38 23.474,27.987 20.05,17.297 		"/>
	</g>
</g>
<g>
</g>
<g>
</g>
<g>
</g>
<g>
</g>
<g>
</g>
<g>
</g>
<g>
</g>
<g>
</g>
<g>
</g>
<g>
</g>
<g>
</g>
<g>
</g>
<g>
</g>
<g>
</g>
<g>
</g>
</svg>
